# -*- coding: utf-8 mode: shell-script -*-

CalculationMode = opt_control
ExperimentalFeatures = yes
StatesPack = yes

# ------------------
# TD RUN Parameters
# ------------------

stime  = 300.0
dt = 0.02
TDPropagator = exp_mid
# use default Taylor expansion -> much faster on GPUs
#TDExponentialMethod = lanczos
#TDExpOrder = 30
#TDLanczosTol = 1.0e-4
TDPropagationTime = stime
TDTimeStep = dt


# --------------
# OCT parameters
# --------------

OCTPenalty = 1.0
OCTEps = 0.000001
OCTMaxIter = 1

OCTInitialState = oct_is_groundstate
OCTTargetOperator = oct_tg_gstransformation
%OCTTargetTransformStates
0 | 1
%

OCTScheme = oct_direct
OCTControlFunctionRepresentation = control_fourier_series
OCTControlFunctionOmegaMax = 0.05
#OCTFixFluenceTo = -1

OCTControlFunctionType = controlfunction_mode_f

OCTDoubleCheck = no



#----------------------------
# Laser field = Initial guess
#-----------------------------

ampl = 0.06
t0 = stime/2
tau0 = stime/2
freq = (2*pi/stime)*5
%TDExternalFields
electric_field | 1 | 0 | 0 | freq | "envelope_function"
%

%TDFunctions
"envelope_function" | tdf_from_expr | "ampl*sin((2*pi/stime)*t)"
%

Dimensions = 1
fromScratch = yes

BoxShape = sphere
Spacing = 0.4
Radius =  15.0

TheoryLevel = independent_particles

%Species
"Box1D" | species_user_defined | potential_formula | "-5*step(x+5)*step(5-x)" | valence | 1
%

%Coordinates
"Box1D" | 0
%





# test code path without CUDA-aware MPI for this test
CudaAwareMPI = no
